<?xml version="1.0" encoding="UTF-8" standalone="no"?>
<!-- Created with Inkscape (http://www.inkscape.org/) -->
<svg width="150" height="150" viewBox="0 0 100 100" version="1.1" xmlns="http://www.w3.org/2000/svg">
   <circle cx="50" cy="50" r="49" fill="transparent"/>
   <circle cx="50" cy="50" r="45" stroke="#d9d9d9" stroke-width="6" stroke-dasharray="0 12.3" stroke-linecap="round" fill="transparent"/>
</svg>
